…
``` r
odds_ratio_sex<-nest_data2%>%
  select(city_state, term, estimate, std.error)%>%
  filter(term=="victim_sexMale")%>%
  mutate(
    odds_ratio=exp(estimate),
    lower_ci=exp(estimate-1.96*std.error),
    upper_ci=exp(estimate+1.96*std.error)
  )%>%
  select(-term, -estimate, -std.error)

odds_ratio_sex
```

    ## # A tibble: 47 × 4
    ##    city_state      odds_ratio lower_ci upper_ci
    ##    <chr>                <dbl>    <dbl>    <dbl>
    ##  1 Albuquerque, NM      0.894    0.774    1.03 
    ##  2 Atlanta, GA          0.879    0.807    0.957
    ##  3 Baltimore, MD        0.781    0.733    0.833
    ##  4 Baton Rouge, LA      0.788    0.691    0.899
    ##  5 Birmingham, AL       0.927    0.842    1.02 
    ##  6 Boston, MA           0.924    0.806    1.06 
    ##  7 Buffalo, NY          0.828    0.724    0.946
    ##  8 Charlotte, NC        0.868    0.803    0.938
    ##  9 Chicago, IL          0.800    0.764    0.836
    ## 10 Cincinnati, OH       0.769    0.691    0.855
    ## # … with 37 more rows
…
